{
    "version": "https://jsonfeed.org/version/1",
    "title": "HUANG",
    "description": "",
    "home_page_url": "https://ChunHuang.gitlab.io/gred",
    "feed_url": "https://ChunHuang.gitlab.io/gred/feed.json",
    "user_comment": "",
    "author": {
        "name": "chunhuang"
    },
    "items": [
        {
            "id": "https://ChunHuang.gitlab.io/gred/mass-cycles-2.html",
            "url": "https://ChunHuang.gitlab.io/gred/mass-cycles-2.html",
            "title": "Time Organ",
            "summary": "Time Orgon Since&hellip;",
            "content_html": "<div><div style=\"width:100%; height:100%; position:fixed; top:0px; left:0px; background-color:rgb(0,0,0); z-index:-1;\"></div></div>\n<div><div class=\"card mb-3 text-white bg-dark\">\n  <div class=\"row g-0 \">\n    <div class=\"col-12 \">\n      <div class=\"card-body\">\n        <h5 class=\"card-title\">Time Orgon</h5>\n        <p class=\"card-text\">Since the changes from sunrise to sunset, humans have continuously explored their relationship with time.  With technological advancements, people have employed tools to segment time into measurable units, constantly seeking the most precise frequencies in nature for more accurate time calculations. The development of technology has introduced the \"attosecond,\" a time unit with eighteen decimal places. However, even when finely divided, this increasingly precise time is challenging to perceive. In fact, at the moment time is calculated and quantified, the essential nature of \"time as continuous change\" is already eradicated. Our body's perception of time should be immeasurable, but the quantitative thought patterns ingrained in us by seemingly objective and precise scientific time have gradually led to the loss of our most direct bodily sensations. This has rendered the relationship between time and bodily experience insensate.</p>\n        <p class=\"card-text\">In our relentless pursuit of temporal precision, we have unintentionally neglected our own body's inherent rhythm. The Time Organ art project delves into the \"insensitivity\" of human somatosensory time, seeking to revive the awareness of bodily time through innate human synchronization and sensory extension. Drawing inspiration from the historical \"mechanical water clock,\" an instrument through which humans initially exercised control over time, the Time Organ artwork employs water as a medium and embodies the concept of extending a human organ. The objective is to fashion a tool that reconnects human time perception with the frequency intrinsic to their bodies. Through the orchestrated chaos and synchronous experiences within the artwork, we consistently prompt the question to the experiencer: What is time? What sensations are you experiencing? Our aim is to investigate, through sensory illusions, whether synchronization can facilitate a return to the most direct bodily perception of time.</p>\n      </div>\n    </div>\n  </div>\n</div></div>\n<div class=\"y-5\"><div class=\"row justify-content-center p-5 text-white \">\n    <div class=\" col-12 hr_line\"></div>\n</div>\n</div>\n\n  <div  class=\"gallery-wrapper\">\n    <div class=\"gallery\" data-columns=\"3\">\n      <figure class=\"gallery__item\">\n      <a href=\"https://ChunHuang.gitlab.io/gred/media/posts/14/gallery/IMG_3782.jpg\" data-size=\"4032x3024\">\n        <img loading=\"lazy\" src=\"https://ChunHuang.gitlab.io/gred/media/posts/14/gallery/IMG_3782-thumbnail.jpg\" height=\"576\" width=\"768\" alt=\"\" >\n      </a>\n      \n    </figure><figure class=\"gallery__item\">\n      <a href=\"https://ChunHuang.gitlab.io/gred/media/posts/14/gallery/Time-Organ_2.JPG\" data-size=\"6000x4000\">\n        <img loading=\"lazy\" src=\"https://ChunHuang.gitlab.io/gred/media/posts/14/gallery/Time-Organ_2-thumbnail.JPG\" height=\"512\" width=\"768\" alt=\"\" >\n      </a>\n      \n    </figure><figure class=\"gallery__item\">\n      <a href=\"https://ChunHuang.gitlab.io/gred/media/posts/14/gallery/IMG_3778.jpg\" data-size=\"4032x3024\">\n        <img loading=\"lazy\" src=\"https://ChunHuang.gitlab.io/gred/media/posts/14/gallery/IMG_3778-thumbnail.jpg\" height=\"576\" width=\"768\" alt=\"\" >\n      </a>\n      \n    </figure><figure class=\"gallery__item\">\n      <a href=\"https://ChunHuang.gitlab.io/gred/media/posts/14/gallery/002.jpg\" data-size=\"4000x2250\">\n        <img loading=\"lazy\" src=\"https://ChunHuang.gitlab.io/gred/media/posts/14/gallery/002-thumbnail.jpg\" height=\"432\" width=\"768\" alt=\"\" >\n      </a>\n      \n    </figure><figure class=\"gallery__item\">\n      <a href=\"https://ChunHuang.gitlab.io/gred/media/posts/14/gallery/IMG_3784.jpg\" data-size=\"4032x3024\">\n        <img loading=\"lazy\" src=\"https://ChunHuang.gitlab.io/gred/media/posts/14/gallery/IMG_3784-thumbnail.jpg\" height=\"576\" width=\"768\" alt=\"\" >\n      </a>\n      \n    </figure><figure class=\"gallery__item\">\n      <a href=\"https://ChunHuang.gitlab.io/gred/media/posts/14/gallery/Time-Organ_3.JPG\" data-size=\"6000x4000\">\n        <img loading=\"lazy\" src=\"https://ChunHuang.gitlab.io/gred/media/posts/14/gallery/Time-Organ_3-thumbnail.JPG\" height=\"512\" width=\"768\" alt=\"\" >\n      </a>\n      \n    </figure><figure class=\"gallery__item\">\n      <a href=\"https://ChunHuang.gitlab.io/gred/media/posts/14/gallery/IMG_3819.jpg\" data-size=\"3024x4032\">\n        <img loading=\"lazy\" src=\"https://ChunHuang.gitlab.io/gred/media/posts/14/gallery/IMG_3819-thumbnail.jpg\" height=\"1024\" width=\"768\" alt=\"\" >\n      </a>\n      \n    </figure><figure class=\"gallery__item\">\n      <a href=\"https://ChunHuang.gitlab.io/gred/media/posts/14/gallery/001.jpg\" data-size=\"4000x2250\">\n        <img loading=\"lazy\" src=\"https://ChunHuang.gitlab.io/gred/media/posts/14/gallery/001-thumbnail.jpg\" height=\"432\" width=\"768\" alt=\"\" >\n      </a>\n      \n    </figure><figure class=\"gallery__item\">\n      <a href=\"https://ChunHuang.gitlab.io/gred/media/posts/14/gallery/IMG_3724.jpg\" data-size=\"4032x3024\">\n        <img loading=\"lazy\" src=\"https://ChunHuang.gitlab.io/gred/media/posts/14/gallery/IMG_3724-thumbnail.jpg\" height=\"576\" width=\"768\" alt=\"\" >\n      </a>\n      \n    </figure><figure class=\"gallery__item\">\n      <a href=\"https://ChunHuang.gitlab.io/gred/media/posts/14/gallery/003.jpg\" data-size=\"4000x2250\">\n        <img loading=\"lazy\" src=\"https://ChunHuang.gitlab.io/gred/media/posts/14/gallery/003-thumbnail.jpg\" height=\"432\" width=\"768\" alt=\"\" >\n      </a>\n      \n    </figure><figure class=\"gallery__item\">\n      <a href=\"https://ChunHuang.gitlab.io/gred/media/posts/14/gallery/Time-Organ_1.jpg\" data-size=\"6000x4000\">\n        <img loading=\"lazy\" src=\"https://ChunHuang.gitlab.io/gred/media/posts/14/gallery/Time-Organ_1-thumbnail.jpg\" height=\"512\" width=\"768\" alt=\"\" >\n      </a>\n      \n    </figure>\n    </div>\n  </div>\n<div><div class=\"row justify-content-center p-5 text-white \">\n    <div class=\" col-12 hr_line\"></div>\n</div></div>\n<div><div class=\"post__iframe\"><iframe loading=\"lazy\" width=\"560\" height=\"315\" src=\"https://www.youtube.com/embed/euQ7X9xSXqM?si=2De724ZhITSNHpsQ\" title=\"YouTube video player\" frameborder=\"0\" allow=\"accelerometer; autoplay; clipboard-write; encrypted-media; gyroscope; picture-in-picture; web-share\" allowfullscreen></iframe></div>\n</div>\n\n  <p>\n    \n  </p>",
            "image": "https://ChunHuang.gitlab.io/gred/media/posts/14/Time-Organ_1.jpg",
            "author": {
                "name": "chunhuang"
            },
            "tags": [
                   "Artwork"
            ],
            "date_published": "2023-11-30T16:33:20+08:00",
            "date_modified": "2023-11-30T16:51:43+08:00"
        },
        {
            "id": "https://ChunHuang.gitlab.io/gred/flow-light.html",
            "url": "https://ChunHuang.gitlab.io/gred/flow-light.html",
            "title": "Flow Light",
            "summary": "Flow Light 希望透過光的象徵意義，使用者尋找、拾起、放置「光」的過程，進而感受到一點溫暖的情緒。&hellip;",
            "content_html": "<div><div style=\"width:100%; height:100%; position:fixed; top:0px; left:0px; background-color:rgb(0,0,0); z-index:-1;\"></div>\n</div>\n<div><div class=\"card mb-3 text-white bg-dark\">\n  <div class=\"row g-0 \">\n    <div class=\"col-12 \">\n      <div class=\"card-body\">\n        <h5 class=\"card-title\">Flow Light</h5>\n        <p class=\"card-text\">希望透過光的象徵意義，使用者尋找、拾起、放置「光」的過程，進而感受到一點溫暖的情緒。</p>\n        <p class=\"card-text\">黑夜之中，光是最耀眼的存在，星星、街燈、車流、熱鬧的街區之類；萬物皆有趨光性，植物、飛蟲，結束了白日繁忙、或者夜晚才剛開始了的人們等等。光輕輕流動，穿梭過指尖與歲月縫隙，人群聚集，人群散去，即使如此，或許還是有一份在等待著我們的光芒，指引著心之所向。尋到一份光，讓它陪你走一段路，再悄悄的留在某一處街道轉角，等下一個人拾起這份溫暖。</p>\n      </div>\n    </div>\n  </div>\n</div></div>\n\n    <figure class=\"post__image post__image--center\">\n      <img loading=\"lazy\" src=\"https://ChunHuang.gitlab.io/gred/media/posts/12/Ying-Mu-Lu-Ying-2023-10-01-Xia-Wu-7.12.35_2.gif\" height=\"720\" width=\"1280\" alt=\"\" >\n      \n    </figure>\n\n    <figure class=\"post__image post__image--center\">\n      <img loading=\"lazy\" src=\"https://ChunHuang.gitlab.io/gred/media/posts/12/ea05-2.gif\" height=\"768\" width=\"1024\" alt=\"\" >\n      \n    </figure>\n<div><div class=\"row justify-content-center p-3\">\n    <div class=\" col-12 hr_line\"></div>\n</div>\n</div>\n<div><div class=\"post__iframe\"><iframe loading=\"lazy\" width=\"560\" height=\"315\" src=\"https://www.youtube.com/embed/wpXnQhXfzC4?si=BObKMmA_wYrw3cMi\" title=\"YouTube video player\" frameborder=\"0\" allow=\"accelerometer; autoplay; clipboard-write; encrypted-media; gyroscope; picture-in-picture; web-share\" allowfullscreen></iframe></div>\n</div>\n<div><div class=\"row justify-content-center p-3\">\n    <div class=\" col-12 hr_line\"></div>\n</div></div>\n\n  <div  class=\"gallery-wrapper\">\n    <div class=\"gallery\" data-columns=\"2\">\n      <figure class=\"gallery__item\">\n      <a href=\"https://ChunHuang.gitlab.io/gred/media/posts/12/gallery/ea04.jpg\" data-size=\"1290x1277\">\n        <img loading=\"lazy\" src=\"https://ChunHuang.gitlab.io/gred/media/posts/12/gallery/ea04-thumbnail.jpg\" height=\"760\" width=\"768\" alt=\"\" >\n      </a>\n      \n    </figure><figure class=\"gallery__item\">\n      <a href=\"https://ChunHuang.gitlab.io/gred/media/posts/12/gallery/ea01.jpg\" data-size=\"2561x2734\">\n        <img loading=\"lazy\" src=\"https://ChunHuang.gitlab.io/gred/media/posts/12/gallery/ea01-thumbnail.jpg\" height=\"820\" width=\"768\" alt=\"\" >\n      </a>\n      \n    </figure>\n    </div>\n  </div>\n<div><div class=\"row justify-content-center p-3\">\n    <div class=\" col-12 hr_line\"></div>\n</div>\n</div>",
            "image": "https://ChunHuang.gitlab.io/gred/media/posts/12/Ying-Mu-Lu-Ying-2023-10-01-Xia-Wu-7.12.35_4.gif",
            "author": {
                "name": "chunhuang"
            },
            "tags": [
                   "Artwork"
            ],
            "date_published": "2023-10-01T18:59:15+08:00",
            "date_modified": "2023-10-01T21:47:05+08:00"
        },
        {
            "id": "https://ChunHuang.gitlab.io/gred/pop-moon-2.html",
            "url": "https://ChunHuang.gitlab.io/gred/pop-moon-2.html",
            "title": "From Here to There",
            "summary": "From Here to&hellip;",
            "content_html": "<div><div class=\"card mb-3\">\n  <div class=\"row g-0 \">\n    <div class=\"col-5 align-self-center\">\n      <img loading=\"lazy\" src=\"https://i.imgur.com/Ob8PWLt.jpg\" class=\"img-fluid rounded-start w-100\" alt=\"...\" data-is-external-image=\"true\">\n    </div>\n    <div class=\"col-6 \">\n      <div class=\"card-body\">\n        <h5 class=\"card-title\">From Here to There</h5>\n        <p class=\"card-text\">兔子在神秘的洞口之間穿梭，探索護城河的景色，觀察河邊的人們，靈活俐落的動作，輕盈又優雅地完成每一次跳動。躍身與落下，乘載了一年跌宕裡的笑與淚，穿越了河道，步步通往新年的企盼。\n        <p class=\"card-text\">「From Here 兔 There」，由河岸上觀眾的碰觸為起點，開啟兔子在河面上跳躍、蛻變的旅程，點亮城市的希望，從這裡到那裡，帶領人們迎向嶄新的一年。</p>\n\n      </div>\n    </div>\n  </div>\n</div></div>\n<div><div class=\"row justify-content-center p-3\">\n    <div class=\" col-12 hr_line\"></div>\n</div>\n</div>\n<div><div class=\"post__iframe\"><iframe loading=\"lazy\" width=\"560\" height=\"315\" src=\"https://www.youtube.com/embed/9bVUFdeSngE?si=1nN8xXacLHAn8EL5\" title=\"YouTube video player\" frameborder=\"0\" allow=\"accelerometer; autoplay; clipboard-write; encrypted-media; gyroscope; picture-in-picture; web-share\" allowfullscreen></iframe></div>\n</div>\n<div><div class=\"row justify-content-center p-3\">\n    <div class=\" col-12 hr_line\"></div>\n</div></div>\n\n  <div  class=\"gallery-wrapper\">\n    <div class=\"gallery\" data-columns=\"3\">\n      <figure class=\"gallery__item\">\n      <a href=\"https://ChunHuang.gitlab.io/gred/media/posts/11/gallery/Da-Zhuang-Gu-Ding-Piao-Fu-Jie-Gou.jpg\" data-size=\"1479x1109\">\n        <img loading=\"lazy\" src=\"https://ChunHuang.gitlab.io/gred/media/posts/11/gallery/Da-Zhuang-Gu-Ding-Piao-Fu-Jie-Gou-thumbnail.jpg\" height=\"576\" width=\"768\" alt=\"\" >\n      </a>\n      \n    </figure><figure class=\"gallery__item\">\n      <a href=\"https://ChunHuang.gitlab.io/gred/media/posts/11/gallery/Guang-Gu-Hua-3DLie-Yin-Tu-Zi-Te-Xie.JPG\" data-size=\"6000x4000\">\n        <img loading=\"lazy\" src=\"https://ChunHuang.gitlab.io/gred/media/posts/11/gallery/Guang-Gu-Hua-3DLie-Yin-Tu-Zi-Te-Xie-thumbnail.JPG\" height=\"512\" width=\"768\" alt=\"\" >\n      </a>\n      \n    </figure><figure class=\"gallery__item\">\n      <a href=\"https://ChunHuang.gitlab.io/gred/media/posts/11/gallery/Guang-Gu-Hua-3DLie-Yin-Tu-Zi-Te-Xie1.JPG\" data-size=\"4032x3024\">\n        <img loading=\"lazy\" src=\"https://ChunHuang.gitlab.io/gred/media/posts/11/gallery/Guang-Gu-Hua-3DLie-Yin-Tu-Zi-Te-Xie1-thumbnail.JPG\" height=\"576\" width=\"768\" alt=\"\" >\n      </a>\n      \n    </figure><figure class=\"gallery__item\">\n      <a href=\"https://ChunHuang.gitlab.io/gred/media/posts/11/gallery/An-Zhuang-3DLie-Yin-Tu-Zi-Yu-Jin-Shu-Jie-Gou.JPG\" data-size=\"4032x3024\">\n        <img loading=\"lazy\" src=\"https://ChunHuang.gitlab.io/gred/media/posts/11/gallery/An-Zhuang-3DLie-Yin-Tu-Zi-Yu-Jin-Shu-Jie-Gou-thumbnail.JPG\" height=\"576\" width=\"768\" alt=\"\" >\n      </a>\n      \n    </figure><figure class=\"gallery__item\">\n      <a href=\"https://ChunHuang.gitlab.io/gred/media/posts/11/gallery/An-Zhuang-3DLie-Yin-Tu-Zi-Yu-Jin-Shu-Jie-Gou1.jpg\" data-size=\"1108x1478\">\n        <img loading=\"lazy\" src=\"https://ChunHuang.gitlab.io/gred/media/posts/11/gallery/An-Zhuang-3DLie-Yin-Tu-Zi-Yu-Jin-Shu-Jie-Gou1-thumbnail.jpg\" height=\"1024\" width=\"768\" alt=\"\" >\n      </a>\n      \n    </figure><figure class=\"gallery__item\">\n      <a href=\"https://ChunHuang.gitlab.io/gred/media/posts/11/gallery/An-Zhuang-3DLie-Yin-Tu-Zi-Yu-Jin-Shu-Jie-Gou2.jpg\" data-size=\"1478x1108\">\n        <img loading=\"lazy\" src=\"https://ChunHuang.gitlab.io/gred/media/posts/11/gallery/An-Zhuang-3DLie-Yin-Tu-Zi-Yu-Jin-Shu-Jie-Gou2-thumbnail.jpg\" height=\"576\" width=\"768\" alt=\"\" >\n      </a>\n      \n    </figure><figure class=\"gallery__item\">\n      <a href=\"https://ChunHuang.gitlab.io/gred/media/posts/11/gallery/An-Zhuang-Dian-Xiang-Yu-Kong-Zhi-He.jpg\" data-size=\"1479x1109\">\n        <img loading=\"lazy\" src=\"https://ChunHuang.gitlab.io/gred/media/posts/11/gallery/An-Zhuang-Dian-Xiang-Yu-Kong-Zhi-He-thumbnail.jpg\" height=\"576\" width=\"768\" alt=\"\" >\n      </a>\n      \n    </figure><figure class=\"gallery__item\">\n      <a href=\"https://ChunHuang.gitlab.io/gred/media/posts/11/gallery/Zuo-Pin-Quan-Jing.jpg\" data-size=\"1478x1108\">\n        <img loading=\"lazy\" src=\"https://ChunHuang.gitlab.io/gred/media/posts/11/gallery/Zuo-Pin-Quan-Jing-thumbnail.jpg\" height=\"576\" width=\"768\" alt=\"\" >\n      </a>\n      \n    </figure><figure class=\"gallery__item\">\n      <a href=\"https://ChunHuang.gitlab.io/gred/media/posts/11/gallery/Zuo-Pin-Quan-Jing1.JPG\" data-size=\"1109x1479\">\n        <img loading=\"lazy\" src=\"https://ChunHuang.gitlab.io/gred/media/posts/11/gallery/Zuo-Pin-Quan-Jing1-thumbnail.JPG\" height=\"1024\" width=\"768\" alt=\"\" >\n      </a>\n      \n    </figure><figure class=\"gallery__item\">\n      <a href=\"https://ChunHuang.gitlab.io/gred/media/posts/11/gallery/Zuo-Pin-Quan-Jing2.jpg\" data-size=\"1109x1479\">\n        <img loading=\"lazy\" src=\"https://ChunHuang.gitlab.io/gred/media/posts/11/gallery/Zuo-Pin-Quan-Jing2-thumbnail.jpg\" height=\"1024\" width=\"768\" alt=\"\" >\n      </a>\n      \n    </figure><figure class=\"gallery__item\">\n      <a href=\"https://ChunHuang.gitlab.io/gred/media/posts/11/gallery/Zuo-Pin-Quan-Jing3.jpg\" data-size=\"1479x1109\">\n        <img loading=\"lazy\" src=\"https://ChunHuang.gitlab.io/gred/media/posts/11/gallery/Zuo-Pin-Quan-Jing3-thumbnail.jpg\" height=\"576\" width=\"768\" alt=\"\" >\n      </a>\n      \n    </figure><figure class=\"gallery__item\">\n      <a href=\"https://ChunHuang.gitlab.io/gred/media/posts/11/gallery/Zuo-Pin-Quan-Jing4.jpg\" data-size=\"1479x1109\">\n        <img loading=\"lazy\" src=\"https://ChunHuang.gitlab.io/gred/media/posts/11/gallery/Zuo-Pin-Quan-Jing4-thumbnail.jpg\" height=\"576\" width=\"768\" alt=\"\" >\n      </a>\n      \n    </figure><figure class=\"gallery__item\">\n      <a href=\"https://ChunHuang.gitlab.io/gred/media/posts/11/gallery/Jin-Shu-Jie-Gou-Xia-Shui.jpg\" data-size=\"1479x1109\">\n        <img loading=\"lazy\" src=\"https://ChunHuang.gitlab.io/gred/media/posts/11/gallery/Jin-Shu-Jie-Gou-Xia-Shui-thumbnail.jpg\" height=\"576\" width=\"768\" alt=\"\" >\n      </a>\n      \n    </figure><figure class=\"gallery__item\">\n      <a href=\"https://ChunHuang.gitlab.io/gred/media/posts/11/gallery/Jin-Shu-Jie-Gou-Xia-Shui1.jpg\" data-size=\"1479x1109\">\n        <img loading=\"lazy\" src=\"https://ChunHuang.gitlab.io/gred/media/posts/11/gallery/Jin-Shu-Jie-Gou-Xia-Shui1-thumbnail.jpg\" height=\"576\" width=\"768\" alt=\"\" >\n      </a>\n      \n    </figure><figure class=\"gallery__item\">\n      <a href=\"https://ChunHuang.gitlab.io/gred/media/posts/11/gallery/Kong-Zhi-He-Dian-Lu-Ban-Ce-Shi-Yu-Jie-Xian.JPG\" data-size=\"1109x1479\">\n        <img loading=\"lazy\" src=\"https://ChunHuang.gitlab.io/gred/media/posts/11/gallery/Kong-Zhi-He-Dian-Lu-Ban-Ce-Shi-Yu-Jie-Xian-thumbnail.JPG\" height=\"1024\" width=\"768\" alt=\"\" >\n      </a>\n      \n    </figure><figure class=\"gallery__item\">\n      <a href=\"https://ChunHuang.gitlab.io/gred/media/posts/11/gallery/Tuan-Dui-He-Zhao.jpg\" data-size=\"1479x1109\">\n        <img loading=\"lazy\" src=\"https://ChunHuang.gitlab.io/gred/media/posts/11/gallery/Tuan-Dui-He-Zhao-thumbnail.jpg\" height=\"576\" width=\"768\" alt=\"\" >\n      </a>\n      \n    </figure><figure class=\"gallery__item\">\n      <a href=\"https://ChunHuang.gitlab.io/gred/media/posts/11/gallery/Tuan-Dui-Yu-Tu-Zi-He-Zhao.JPG\" data-size=\"4032x3024\">\n        <img loading=\"lazy\" src=\"https://ChunHuang.gitlab.io/gred/media/posts/11/gallery/Tuan-Dui-Yu-Tu-Zi-He-Zhao-thumbnail.JPG\" height=\"576\" width=\"768\" alt=\"\" >\n      </a>\n      \n    </figure>\n    </div>\n  </div>\n<div><div class=\"row justify-content-center p-3\">\n    <div class=\" col-12 hr_line\"></div>\n</div>\n</div>\n<div><div class=\"card mb-3\">\n    <h5 class=\"p-5\">國立清華大學 藝術學院學士班</h5>\n    <ul>\n        <li>單位：數位美學暨科技文化研究實驗室</li>\n        <li>成員：林俊遑、黃紀虹、鄭子芸、游覺輔、賴玟霓、劉怡萱、黃睿緯、林易萱、陳虹宇、程馨、謝長穎</li>\n        <li>活動：2023 新竹燈節</li>\n        <li>特別感謝：殺手、阿盈</li>\n    </ul>\n</div>\n\n</div>\n\n  <p>\n    \n  </p>",
            "image": "https://ChunHuang.gitlab.io/gred/media/posts/11/Guang-Gu-Hua-3DLie-Yin-Tu-Zi-Te-Xie.JPG",
            "author": {
                "name": "chunhuang"
            },
            "tags": [
                   "Artwork"
            ],
            "date_published": "2023-10-01T18:42:24+08:00",
            "date_modified": "2023-10-01T18:59:00+08:00"
        },
        {
            "id": "https://ChunHuang.gitlab.io/gred/mass-cycles.html",
            "url": "https://ChunHuang.gitlab.io/gred/mass-cycles.html",
            "title": "Mass Cycles",
            "summary": "現實環境正不斷轉換為資訊，使人們試圖去尋找能證明「資訊」存在的方法，當我們所認為虛擬的事物確實存在著，環境的變遷、水文的循環將因數位化而改變，數據統計、數位化保存等亦改變了人們認知的自然，我們所認為的真實漸漸從虛擬中得知，使現實蒸發為虛擬又凝結為真實。然而數位與虛擬納為自然的循環中，我們喪失了何物？在一次次數位的循環後又將遺忘哪些本質的意義？ The transformation&hellip;",
            "content_html": "\n  <p>\n    現實環境正不斷轉換為資訊，使人們試圖去尋找能證明「資訊」存在的方法，當我們所認為虛擬的事物確實存在著，環境的變遷、水文的循環將因數位化而改變，數據統計、數位化保存等亦改變了人們認知的自然，我們所認為的真實漸漸從虛擬中得知，使現實蒸發為虛擬又凝結為真實。然而數位與虛擬納為自然的循環中，我們喪失了何物？在一次次數位的循環後又將遺忘哪些本質的意義？\n  </p>\n\n  <p>\n    The transformation of our physical environment into information makes people seek ways to validate \"information's\" existence. As what we perceive as virtual elements indeed exists, shift natural cycles through digitization, altering our grasp of the natural world. Reality unfolds from the virtual, evaporating into the digital and solidifying back into reality. Amidst this digital-virtual cycle, what's lost? Which essential meanings fade after repeated digital shifts?<br>\n  </p>\n\n  <p>\n    「數位循環」嘗試將虛擬地景介入現實環境當中，藉此捕捉數位循環中所喪失的「資訊的重量」。透過實地掃描自然景觀後，運用點雲技術複製出虛擬地景，計算其資訊位元的重量並與現實地景想比對，最後將消逝的重量透過霧化裝置噴出等重量的水霧消散至空間中，正如那些數位化後所蒸發至無的現實樣貌，龐大且充斥在周遭，正在消逝卻無人察覺。<br>\n  </p>\n\n  <p>\n    \"Mess Cycle\" introduces virtual landscapes to physical environments, capturing lost \"information weight.\" Scanning natural scenes and recreating virtual ones using point cloud tech, we calculate their informational weight and compare with real surroundings. The vanishing weight disperses through misting, paralleling the evaporation of digitized realities. Imperceptible yet vast, these shifts engulf us, fading away undetected.\n  </p>\n<div class=\"y-5\"><div class=\"row justify-content-center p-5\">\n    <div class=\" col-12 hr_line\"></div>\n</div>\n</div>\n\n  <div  class=\"gallery-wrapper\">\n    <div class=\"gallery\" data-columns=\"3\">\n      <figure class=\"gallery__item\">\n      <a href=\"https://ChunHuang.gitlab.io/gred/media/posts/8/gallery/004.jpg\" data-size=\"6000x4000\">\n        <img loading=\"lazy\" src=\"https://ChunHuang.gitlab.io/gred/media/posts/8/gallery/004-thumbnail.jpg\" height=\"512\" width=\"768\" alt=\"\" >\n      </a>\n      \n    </figure><figure class=\"gallery__item\">\n      <a href=\"https://ChunHuang.gitlab.io/gred/media/posts/8/gallery/03.jpg\" data-size=\"5891x3822\">\n        <img loading=\"lazy\" src=\"https://ChunHuang.gitlab.io/gred/media/posts/8/gallery/03-thumbnail.jpg\" height=\"498\" width=\"768\" alt=\"\" >\n      </a>\n      \n    </figure><figure class=\"gallery__item\">\n      <a href=\"https://ChunHuang.gitlab.io/gred/media/posts/8/gallery/02.jpg\" data-size=\"6000x4000\">\n        <img loading=\"lazy\" src=\"https://ChunHuang.gitlab.io/gred/media/posts/8/gallery/02-thumbnail.jpg\" height=\"512\" width=\"768\" alt=\"\" >\n      </a>\n      \n    </figure><figure class=\"gallery__item\">\n      <a href=\"https://ChunHuang.gitlab.io/gred/media/posts/8/gallery/01.jpg\" data-size=\"6000x4000\">\n        <img loading=\"lazy\" src=\"https://ChunHuang.gitlab.io/gred/media/posts/8/gallery/01-thumbnail.jpg\" height=\"512\" width=\"768\" alt=\"\" >\n      </a>\n      \n    </figure><figure class=\"gallery__item\">\n      <a href=\"https://ChunHuang.gitlab.io/gred/media/posts/8/gallery/IMG_9923.jpg\" data-size=\"5891x3822\">\n        <img loading=\"lazy\" src=\"https://ChunHuang.gitlab.io/gred/media/posts/8/gallery/IMG_9923-thumbnail.jpg\" height=\"498\" width=\"768\" alt=\"\" >\n      </a>\n      \n    </figure>\n    </div>\n  </div>\n<div><div class=\"row justify-content-center p-5\">\n    <div class=\" col-12 hr_line\"></div>\n</div></div>\n<div><div class=\"post__iframe\"><iframe loading=\"lazy\" width=\"560\" height=\"315\" src=\"https://www.youtube.com/embed/LrJz96OJBV4?si=VZ_yxcarQajlnfty\" title=\"YouTube video player\" frameborder=\"0\" allow=\"accelerometer; autoplay; clipboard-write; encrypted-media; gyroscope; picture-in-picture; web-share\" allowfullscreen></iframe></div>\n</div>\n\n  <p>\n    \n  </p>",
            "image": "https://ChunHuang.gitlab.io/gred/media/posts/8/01-2.jpg",
            "author": {
                "name": "chunhuang"
            },
            "tags": [
                   "Artwork"
            ],
            "date_published": "2023-08-26T03:18:11+08:00",
            "date_modified": "2023-08-29T17:19:53+08:00"
        },
        {
            "id": "https://ChunHuang.gitlab.io/gred/sunny-town.html",
            "url": "https://ChunHuang.gitlab.io/gred/sunny-town.html",
            "title": "Sunny Town",
            "summary": "「天氣晴朗的小鎮上」透過教育典藏兒童畫中的元素，結合創客的「交流共創」精神與新媒體「擴增實境AR」的應用，使繪畫創意不只在平面紙張上，更跳躍於空間、虛實中，跨越不同畫作，在這座天氣晴朗的小鎮上。 \"Sunny Town\"&hellip;",
            "content_html": "<div><div class=\"row justify-content-center\">\n    <div class=\" col-8 hr_line\"></div>\n</div>\n</div>\n<div><div id=\"carouselExampleCaptions\" class=\"carousel slide\" data-bs-ride=\"carousel\">\n  <div class=\"carousel-indicators\">\n    <button type=\"button\" data-bs-target=\"#carouselExampleCaptions\" data-bs-slide-to=\"0\" class=\"active\" aria-current=\"true\" aria-label=\"Slide 1\"></button>\n    <button type=\"button\" data-bs-target=\"#carouselExampleCaptions\" data-bs-slide-to=\"1\" aria-label=\"Slide 2\"></button>\n    <button type=\"button\" data-bs-target=\"#carouselExampleCaptions\" data-bs-slide-to=\"2\" aria-label=\"Slide 3\"></button>\n  </div>\n  <div class=\"carousel-inner\">\n    <div class=\"carousel-item active\">\n      <img loading=\"lazy\" src=\"https://i.imgur.com/KtMt60z.jpg\" class=\"d-block w-100\" alt=\"...\" data-is-external-image=\"true\">\n      <div class=\"carousel-caption d-block\">\n        <h5></h5>\n        <p></p>\n      </div>\n    </div>\n    <div class=\"carousel-item\">\n      <img loading=\"lazy\" src=\"https://i.imgur.com/Ajmz4wy.jpg\" class=\"d-block w-100\" alt=\"...\" data-is-external-image=\"true\">\n      <div class=\"carousel-caption d-block\">\n        <h5></h5>\n        <p></p>\n      </div>\n    </div>\n    <div class=\"carousel-item\">\n      <img loading=\"lazy\" src=\"https://i.imgur.com/eTXY7aG.jpg\" class=\"d-block w-100\" alt=\"...\" data-is-external-image=\"true\">\n      <div class=\"carousel-caption d-block\">\n        <h5></h5>\n        <p></p>\n      </div>\n    </div>\n  </div>\n  <button class=\"carousel-control-prev\" type=\"button\" data-bs-target=\"#carouselExampleCaptions\" data-bs-slide=\"prev\">\n    <span class=\"carousel-control-prev-icon\" aria-hidden=\"true\"></span>\n    <span class=\"visually-hidden\">Previous</span>\n  </button>\n  <button class=\"carousel-control-next\" type=\"button\" data-bs-target=\"#carouselExampleCaptions\" data-bs-slide=\"next\">\n    <span class=\"carousel-control-next-icon\" aria-hidden=\"true\"></span>\n    <span class=\"visually-hidden\">Next</span>\n  </button>\n</div>\n<div class=\" justify-content-center m-5\">\n</div></div>\n\n  <p>\n    「天氣晴朗的小鎮上」透過教育典藏兒童畫中的元素，結合創客的「交流共創」精神與新媒體「擴增實境AR」的應用，使繪畫創意不只在平面紙張上，更跳躍於空間、虛實中，跨越不同畫作，在這座天氣晴朗的小鎮上。<br>\n  </p>\n\n  <p>\n    \"Sunny Town\" features elements from educational children's art, combined with the creative spirit of creative entrepreneurs and the application of augmented reality (AR) through new media, making the artistic creativity not only limited to paper, but also spreading across space, virtual reality, and different artworks, in this warm and sunny town.\n  </p>\n<div><div class=\"row justify-content-center m-5\">\n    <div class=\" col-8 hr_line\"></div>\n</div>\n</div>\n\n  <div  class=\"gallery-wrapper\">\n    <div class=\"gallery\" data-columns=\"3\">\n      <figure class=\"gallery__item\">\n      <a href=\"https://ChunHuang.gitlab.io/gred/media/posts/7/gallery/IMG_0707.JPG\" data-size=\"4032x3024\">\n        <img loading=\"lazy\" src=\"https://ChunHuang.gitlab.io/gred/media/posts/7/gallery/IMG_0707-thumbnail.JPG\" height=\"576\" width=\"768\" alt=\"\" >\n      </a>\n      \n    </figure><figure class=\"gallery__item\">\n      <a href=\"https://ChunHuang.gitlab.io/gred/media/posts/7/gallery/IMG_0698.JPG\" data-size=\"4032x3024\">\n        <img loading=\"lazy\" src=\"https://ChunHuang.gitlab.io/gred/media/posts/7/gallery/IMG_0698-thumbnail.JPG\" height=\"576\" width=\"768\" alt=\"\" >\n      </a>\n      \n    </figure><figure class=\"gallery__item\">\n      <a href=\"https://ChunHuang.gitlab.io/gred/media/posts/7/gallery/IMG_0716.JPG\" data-size=\"4032x3024\">\n        <img loading=\"lazy\" src=\"https://ChunHuang.gitlab.io/gred/media/posts/7/gallery/IMG_0716-thumbnail.JPG\" height=\"576\" width=\"768\" alt=\"\" >\n      </a>\n      \n    </figure><figure class=\"gallery__item\">\n      <a href=\"https://ChunHuang.gitlab.io/gred/media/posts/7/gallery/IMG_0712.JPG\" data-size=\"3024x4032\">\n        <img loading=\"lazy\" src=\"https://ChunHuang.gitlab.io/gred/media/posts/7/gallery/IMG_0712-thumbnail.JPG\" height=\"1024\" width=\"768\" alt=\"\" >\n      </a>\n      \n    </figure><figure class=\"gallery__item\">\n      <a href=\"https://ChunHuang.gitlab.io/gred/media/posts/7/gallery/IMG_0709.JPG\" data-size=\"4032x3024\">\n        <img loading=\"lazy\" src=\"https://ChunHuang.gitlab.io/gred/media/posts/7/gallery/IMG_0709-thumbnail.JPG\" height=\"576\" width=\"768\" alt=\"\" >\n      </a>\n      \n    </figure><figure class=\"gallery__item\">\n      <a href=\"https://ChunHuang.gitlab.io/gred/media/posts/7/gallery/IMG_0699.JPG\" data-size=\"4032x3024\">\n        <img loading=\"lazy\" src=\"https://ChunHuang.gitlab.io/gred/media/posts/7/gallery/IMG_0699-thumbnail.JPG\" height=\"576\" width=\"768\" alt=\"\" >\n      </a>\n      \n    </figure><figure class=\"gallery__item\">\n      <a href=\"https://ChunHuang.gitlab.io/gred/media/posts/7/gallery/IMG_0686.JPG\" data-size=\"4032x3024\">\n        <img loading=\"lazy\" src=\"https://ChunHuang.gitlab.io/gred/media/posts/7/gallery/IMG_0686-thumbnail.JPG\" height=\"576\" width=\"768\" alt=\"\" >\n      </a>\n      \n    </figure>\n    </div>\n  </div>\n<div><div class=\"row justify-content-center m-5\">\n    <div class=\" col-8 hr_line\"></div>\n</div>\n</div>\n<div><div class=\"post__iframe\"><iframe loading=\"lazy\" width=\"560\" height=\"315\" src=\"https://www.youtube.com/embed/pFjsBx9bzpM?si=x5jEOnGcTRHKy9v_\" title=\"YouTube video player\" frameborder=\"0\" allow=\"accelerometer; autoplay; clipboard-write; encrypted-media; gyroscope; picture-in-picture; web-share\" allowfullscreen></iframe></div></div>\n\n  <p>\n    \n  </p>",
            "image": "https://ChunHuang.gitlab.io/gred/media/posts/7/IMG_22FEDBA146C0-1.JPEG",
            "author": {
                "name": "chunhuang"
            },
            "tags": [
                   "Design"
            ],
            "date_published": "2023-08-26T03:16:44+08:00",
            "date_modified": "2023-08-29T17:40:40+08:00"
        },
        {
            "id": "https://ChunHuang.gitlab.io/gred/pop-moon.html",
            "url": "https://ChunHuang.gitlab.io/gred/pop-moon.html",
            "title": "POP Moon",
            "summary": "POP Moon 人們對光的嚮往，造就了無數對月光的崇拜與傳說。然而，有光即有影。對月亮的憧憬與恐懼，細語如一條條充滿禁忌的警告，流傳並知曉至今。本作品,欲透過裝置的擺設,再現民間傳說的神秘色彩與禁忌故事。邀請各位隨著冒犯的手指們，一同走進傳說的遐想。&hellip;",
            "content_html": "<div><div class=\"card mb-3\">\n  <div class=\"row g-0 \">\n    <div class=\"col-5 align-self-center\">\n      <img loading=\"lazy\" src=\"https://i.imgur.com/D3tUJRZ.jpg\" class=\"img-fluid rounded-start w-100\" alt=\"...\" data-is-external-image=\"true\">\n    </div>\n    <div class=\"col-6 \">\n      <div class=\"card-body\">\n        <h5 class=\"card-title\">POP Moon</h5>\n        <p class=\"card-text\">人們對光的嚮往，造就了無數對月光的崇拜與傳說。然而，有光即有影。對月亮的憧憬與恐懼，細語如一條條充滿禁忌的警告，流傳並知曉至今。本作品,欲透過裝置的擺設,再現民間傳說的神秘色彩與禁忌故事。邀請各位隨著冒犯的手指們，一同走進傳說的遐想。</p>\n      </div>\n    </div>\n  </div>\n</div></div>\n<div><div class=\"card mb-3\">\n  <div class=\"row g-0 \">\n    <div class=\"col-5 align-self-center\">\n      <img loading=\"lazy\" src=\"https://i.imgur.com/1AqKWbc.jpg\" class=\"img-fluid rounded-start w-100\" alt=\"...\" data-is-external-image=\"true\">\n    </div>\n    <div class=\"col-6 \">\n      <div class=\"card-body\">\n        <h5 class=\"card-title\">互動網頁</h5>\n        <p class=\"card-text\">現場將擺設QRcode, 邀請觀眾連網至POPMOON。</p>\n        <p class=\"card-text\">我們設計的網頁遊戲 POPMOON,如同先前爆紅的網頁遊戲 POPCAT,觀眾僅需不斷的點擊月亮,讓現場的手指受到月亮的懲罰,造成燈光不斷的閃滅。</p>\n        <p class=\"card-text\">若當下無觀眾連網至 POPMOON 來冒犯月亮,手部燈具將不再閃爍,進入常設的亮燈模式,進行週期性的亮暗緩慢閃爍。</p>\n      </div>\n    </div>\n  </div>\n</div>\n</div>\n<div><div class=\"row justify-content-center p-5\">\n    <div class=\" col-12 hr_line\"></div>\n</div>\n</div>\n<div><div class=\"post__iframe\"><iframe loading=\"lazy\" width=\"560\" height=\"315\" src=\"https://www.youtube.com/embed/PCIT49khSO8?si=NgbwvFkl5V_A11gt\" title=\"YouTube video player\" frameborder=\"0\" allow=\"accelerometer; autoplay; clipboard-write; encrypted-media; gyroscope; picture-in-picture; web-share\" allowfullscreen></iframe></div>\n</div>\n<div><div class=\"row justify-content-center p-5\">\n    <div class=\" col-12 hr_line\"></div>\n</div></div>\n\n  <div  class=\"gallery-wrapper\">\n    <div class=\"gallery\" data-columns=\"3\">\n      <figure class=\"gallery__item\">\n      <a href=\"https://ChunHuang.gitlab.io/gred/media/posts/5/gallery/IMG_9570.jpg\" data-size=\"4032x3024\">\n        <img loading=\"lazy\" src=\"https://ChunHuang.gitlab.io/gred/media/posts/5/gallery/IMG_9570-thumbnail.jpg\" height=\"576\" width=\"768\" alt=\"\" >\n      </a>\n      \n    </figure><figure class=\"gallery__item\">\n      <a href=\"https://ChunHuang.gitlab.io/gred/media/posts/5/gallery/IMG_9543.jpg\" data-size=\"4032x3024\">\n        <img loading=\"lazy\" src=\"https://ChunHuang.gitlab.io/gred/media/posts/5/gallery/IMG_9543-thumbnail.jpg\" height=\"576\" width=\"768\" alt=\"\" >\n      </a>\n      \n    </figure><figure class=\"gallery__item\">\n      <a href=\"https://ChunHuang.gitlab.io/gred/media/posts/5/gallery/IMG_0160.jpg\" data-size=\"4032x3024\">\n        <img loading=\"lazy\" src=\"https://ChunHuang.gitlab.io/gred/media/posts/5/gallery/IMG_0160-thumbnail.jpg\" height=\"576\" width=\"768\" alt=\"\" >\n      </a>\n      \n    </figure><figure class=\"gallery__item\">\n      <a href=\"https://ChunHuang.gitlab.io/gred/media/posts/5/gallery/IMG_9558.JPG\" data-size=\"6000x4000\">\n        <img loading=\"lazy\" src=\"https://ChunHuang.gitlab.io/gred/media/posts/5/gallery/IMG_9558-thumbnail.JPG\" height=\"512\" width=\"768\" alt=\"\" >\n      </a>\n      \n    </figure><figure class=\"gallery__item\">\n      <a href=\"https://ChunHuang.gitlab.io/gred/media/posts/5/gallery/IMG_9562.JPG\" data-size=\"6000x4000\">\n        <img loading=\"lazy\" src=\"https://ChunHuang.gitlab.io/gred/media/posts/5/gallery/IMG_9562-thumbnail.JPG\" height=\"512\" width=\"768\" alt=\"\" >\n      </a>\n      \n    </figure><figure class=\"gallery__item\">\n      <a href=\"https://ChunHuang.gitlab.io/gred/media/posts/5/gallery/IMG_9501.JPG\" data-size=\"6000x4000\">\n        <img loading=\"lazy\" src=\"https://ChunHuang.gitlab.io/gred/media/posts/5/gallery/IMG_9501-thumbnail.JPG\" height=\"512\" width=\"768\" alt=\"\" >\n      </a>\n      \n    </figure><figure class=\"gallery__item\">\n      <a href=\"https://ChunHuang.gitlab.io/gred/media/posts/5/gallery/IMG_9499.JPG\" data-size=\"6000x4000\">\n        <img loading=\"lazy\" src=\"https://ChunHuang.gitlab.io/gred/media/posts/5/gallery/IMG_9499-thumbnail.JPG\" height=\"512\" width=\"768\" alt=\"\" >\n      </a>\n      \n    </figure><figure class=\"gallery__item\">\n      <a href=\"https://ChunHuang.gitlab.io/gred/media/posts/5/gallery/IMG_9504.JPG\" data-size=\"6000x4000\">\n        <img loading=\"lazy\" src=\"https://ChunHuang.gitlab.io/gred/media/posts/5/gallery/IMG_9504-thumbnail.JPG\" height=\"512\" width=\"768\" alt=\"\" >\n      </a>\n      \n    </figure><figure class=\"gallery__item\">\n      <a href=\"https://ChunHuang.gitlab.io/gred/media/posts/5/gallery/IMG_9518.JPG\" data-size=\"6000x4000\">\n        <img loading=\"lazy\" src=\"https://ChunHuang.gitlab.io/gred/media/posts/5/gallery/IMG_9518-thumbnail.JPG\" height=\"512\" width=\"768\" alt=\"\" >\n      </a>\n      \n    </figure><figure class=\"gallery__item\">\n      <a href=\"https://ChunHuang.gitlab.io/gred/media/posts/5/gallery/IMG_9496.JPG\" data-size=\"6000x4000\">\n        <img loading=\"lazy\" src=\"https://ChunHuang.gitlab.io/gred/media/posts/5/gallery/IMG_9496-thumbnail.JPG\" height=\"512\" width=\"768\" alt=\"\" >\n      </a>\n      \n    </figure><figure class=\"gallery__item\">\n      <a href=\"https://ChunHuang.gitlab.io/gred/media/posts/5/gallery/IMG_9494.JPG\" data-size=\"6000x4000\">\n        <img loading=\"lazy\" src=\"https://ChunHuang.gitlab.io/gred/media/posts/5/gallery/IMG_9494-thumbnail.JPG\" height=\"512\" width=\"768\" alt=\"\" >\n      </a>\n      \n    </figure>\n    </div>\n  </div>\n<div><div class=\"row justify-content-center p-3\">\n    <div class=\" col-12 hr_line\"></div>\n</div>\n</div>\n<div><div class=\"card mb-3\">\n    <h5 class=\"p-5\">國立清華大學 藝術學院學士班</h5>\n    <ul>\n        <li>單位：數位美學暨科技文化研究實驗室</li>\n        <li>成員：林俊遑、黃紀虹、鄭子芸、游覺輔、賴玟霓、劉怡萱、黃睿緯</li>\n        <li>活動：2023 月津港燈節</li>\n        <li>特別感謝：蔡嘟、邱老大</li>\n    </ul>\n</div>\n\n</div>\n\n  <p>\n    \n  </p>",
            "image": "https://ChunHuang.gitlab.io/gred/media/posts/5/IMG_9496.JPG",
            "author": {
                "name": "chunhuang"
            },
            "tags": [
                   "Artwork"
            ],
            "date_published": "2023-08-26T00:34:36+08:00",
            "date_modified": "2023-10-01T18:52:26+08:00"
        },
        {
            "id": "https://ChunHuang.gitlab.io/gred/pcb-design.html",
            "url": "https://ChunHuang.gitlab.io/gred/pcb-design.html",
            "title": "PCB Design",
            "content_html": "\n  <p>\n    <line-separator></line-separator>\n  </p>\n\n  <div  class=\"gallery-wrapper\">\n    <div class=\"gallery\" data-columns=\"3\">\n      <figure class=\"gallery__item\">\n      <a href=\"https://ChunHuang.gitlab.io/gred/media/posts/4/gallery/IMG_3286.jpg\" data-size=\"4032x3024\">\n        <img loading=\"lazy\" src=\"https://ChunHuang.gitlab.io/gred/media/posts/4/gallery/IMG_3286-thumbnail.jpg\" height=\"576\" width=\"768\" alt=\"\" >\n      </a>\n      \n    </figure><figure class=\"gallery__item\">\n      <a href=\"https://ChunHuang.gitlab.io/gred/media/posts/4/gallery/IMG_8828.JPG\" data-size=\"6000x4000\">\n        <img loading=\"lazy\" src=\"https://ChunHuang.gitlab.io/gred/media/posts/4/gallery/IMG_8828-thumbnail.JPG\" height=\"512\" width=\"768\" alt=\"\" >\n      </a>\n      \n    </figure><figure class=\"gallery__item\">\n      <a href=\"https://ChunHuang.gitlab.io/gred/media/posts/4/gallery/IMG_8823.JPG\" data-size=\"6000x4000\">\n        <img loading=\"lazy\" src=\"https://ChunHuang.gitlab.io/gred/media/posts/4/gallery/IMG_8823-thumbnail.JPG\" height=\"512\" width=\"768\" alt=\"\" >\n      </a>\n      \n    </figure><figure class=\"gallery__item\">\n      <a href=\"https://ChunHuang.gitlab.io/gred/media/posts/4/gallery/IMG_8821.JPG\" data-size=\"6000x4000\">\n        <img loading=\"lazy\" src=\"https://ChunHuang.gitlab.io/gred/media/posts/4/gallery/IMG_8821-thumbnail.JPG\" height=\"512\" width=\"768\" alt=\"\" >\n      </a>\n      \n    </figure><figure class=\"gallery__item\">\n      <a href=\"https://ChunHuang.gitlab.io/gred/media/posts/4/gallery/IMG_8816.jpg\" data-size=\"2769x2769\">\n        <img loading=\"lazy\" src=\"https://ChunHuang.gitlab.io/gred/media/posts/4/gallery/IMG_8816-thumbnail.jpg\" height=\"768\" width=\"768\" alt=\"\" >\n      </a>\n      \n    </figure><figure class=\"gallery__item\">\n      <a href=\"https://ChunHuang.gitlab.io/gred/media/posts/4/gallery/IMG_8810.JPG\" data-size=\"6000x4000\">\n        <img loading=\"lazy\" src=\"https://ChunHuang.gitlab.io/gred/media/posts/4/gallery/IMG_8810-thumbnail.JPG\" height=\"512\" width=\"768\" alt=\"\" >\n      </a>\n      \n    </figure><figure class=\"gallery__item\">\n      <a href=\"https://ChunHuang.gitlab.io/gred/media/posts/4/gallery/IMG_8803.JPG\" data-size=\"6000x4000\">\n        <img loading=\"lazy\" src=\"https://ChunHuang.gitlab.io/gred/media/posts/4/gallery/IMG_8803-thumbnail.JPG\" height=\"512\" width=\"768\" alt=\"\" >\n      </a>\n      \n    </figure><figure class=\"gallery__item\">\n      <a href=\"https://ChunHuang.gitlab.io/gred/media/posts/4/gallery/IMG_8805.jpg\" data-size=\"4000x6000\">\n        <img loading=\"lazy\" src=\"https://ChunHuang.gitlab.io/gred/media/posts/4/gallery/IMG_8805-thumbnail.jpg\" height=\"1152\" width=\"768\" alt=\"\" >\n      </a>\n      \n    </figure><figure class=\"gallery__item\">\n      <a href=\"https://ChunHuang.gitlab.io/gred/media/posts/4/gallery/IMG_3282.jpg\" data-size=\"3735x2910\">\n        <img loading=\"lazy\" src=\"https://ChunHuang.gitlab.io/gred/media/posts/4/gallery/IMG_3282-thumbnail.jpg\" height=\"599\" width=\"768\" alt=\"\" >\n      </a>\n      \n    </figure>\n    </div>\n  </div>",
            "image": "https://ChunHuang.gitlab.io/gred/media/posts/4/IMG_8816.jpg",
            "author": {
                "name": "chunhuang"
            },
            "tags": [
                   "Design"
            ],
            "date_published": "2023-08-16T22:56:48+08:00",
            "date_modified": "2023-08-29T17:21:18+08:00"
        },
        {
            "id": "https://ChunHuang.gitlab.io/gred/test-page-2.html",
            "url": "https://ChunHuang.gitlab.io/gred/test-page-2.html",
            "title": "Leashing the Socket",
            "summary": "Sockets are all&hellip;",
            "content_html": "<div><div class=\"row justify-content-center\">\n    <div class=\" col-8 hr_line\"></div>\n</div></div>\n\n  <p>\n    Sockets are all around us in our daily lives, forming a network of electricity that outlines the boundaries of human existence and distinguishes the activities of \"modern people.\" This relationship between humans and sockets creates an unseen force that attaches and restricts us.\n  </p>\n<div><div id=\"carouselExampleCaptions\" class=\"carousel slide\" data-bs-ride=\"carousel\">\n  <div class=\"carousel-indicators\">\n    <button type=\"button\" data-bs-target=\"#carouselExampleCaptions\" data-bs-slide-to=\"0\" class=\"active\" aria-current=\"true\" aria-label=\"Slide 1\"></button>\n    <button type=\"button\" data-bs-target=\"#carouselExampleCaptions\" data-bs-slide-to=\"1\" aria-label=\"Slide 2\"></button>\n    <button type=\"button\" data-bs-target=\"#carouselExampleCaptions\" data-bs-slide-to=\"2\" aria-label=\"Slide 3\"></button>\n  </div>\n  <div class=\"carousel-inner\">\n    <div class=\"carousel-item active\">\n      <img loading=\"lazy\" src=\"https://i.imgur.com/fihlJ3f.jpg\" class=\"d-block w-100\" alt=\"...\" data-is-external-image=\"true\">\n      <div class=\"carousel-caption d-block\">\n        <h5></h5>\n        <p></p>\n      </div>\n    </div>\n    <div class=\"carousel-item\">\n      <img loading=\"lazy\" src=\"https://i.imgur.com/RdX9ch8.png?2\" class=\"d-block w-100\" alt=\"...\" data-is-external-image=\"true\">\n      <div class=\"carousel-caption d-block\">\n        <h5></h5>\n        <p></p>\n      </div>\n    </div>\n    <div class=\"carousel-item\">\n      <img loading=\"lazy\" src=\"https://i.imgur.com/OkWyg7K.jpg\" class=\"d-block w-100\" alt=\"...\" data-is-external-image=\"true\">\n      <div class=\"carousel-caption d-block\">\n        <h5></h5>\n        <p></p>\n      </div>\n    </div>\n  </div>\n  <button class=\"carousel-control-prev\" type=\"button\" data-bs-target=\"#carouselExampleCaptions\" data-bs-slide=\"prev\">\n    <span class=\"carousel-control-prev-icon\" aria-hidden=\"true\"></span>\n    <span class=\"visually-hidden\">Previous</span>\n  </button>\n  <button class=\"carousel-control-next\" type=\"button\" data-bs-target=\"#carouselExampleCaptions\" data-bs-slide=\"next\">\n    <span class=\"carousel-control-next-icon\" aria-hidden=\"true\"></span>\n    <span class=\"visually-hidden\">Next</span>\n  </button>\n</div>\n<div class=\"row justify-content-center mt-5\">\n    <div class=\" col-8 hr_line\"></div>\n</div>\n</div>\n<div><div class=\"card mb-3\">\n  <div class=\"row g-0 \">\n    <div class=\"col-3 align-self-center\">\n      <img loading=\"lazy\" src=\"https://i.imgur.com/u3DxWkV.jpg\" class=\"img-fluid rounded-start\" alt=\"...\" data-is-external-image=\"true\">\n    </div>\n    <div class=\"col-9 \">\n      <div class=\"card-body\">\n        <h5 class=\"card-title\">Action</h5>\n        <p class=\"card-text\">We tries to swap the roles of supply and demand between sockets and mobile phones. By having the mobile phone supply power to the socket, it comes alive and starts moving around. The connection through the power cord ties humans and sockets together, resulting in a humorous scenario of \"Leash- ing pets.\" This also invites the audience to ponder: Who leashes whom? Who truly holds the power?</p>\n        <p class=\"card-text\">After reversing this dynamic, the intention is to reveal the intricate network formed by humans and non-human elements. The aim is to magnify and liberate it, allowing it to exist as an inde- pendent entity. This introduces the act of \"walk- ing\" into the relationship between sockets and people, underscoring the unequal state between them. As we walk and follow each other, we continually break free from the confines of the current network, striving to build autonomous individuals.</p>\n      </div>\n    </div>\n  </div>\n</div></div>\n<div><div class=\"card mb-3\">\n  <div class=\"row g-0\">\n    <div class=\"col-3 align-self-center\">\n      <img loading=\"lazy\" src=\"https://i.imgur.com/yAKpRAb.png\" class=\"img-fluid rounded-start\" alt=\"...\" data-is-external-image=\"true\">\n    </div>\n    <div class=\"col-9\">\n      <div class=\"card-body\">\n        <h5 class=\"card-title\">Next?</h5>\n        <p class=\"card-text\">By flipping the relationship between subject and object, will the resources inherently possessed by humans be set free?After we stole the power of the audience's mobile phone, we stored the remaining power. These batteries, powered by the audience, will go to the next place....</p>\n      </div>\n    </div>\n  </div>\n</div></div>\n<div><div class=\"card mb-3\">\n  \n  <div class=\"row g-0\">\n    <div class=\"col-5 align-self-center\">\n        <div class=\"card-body\">\n            <h5 class=\"card-title\">Design Socket</h5>\n            <img loading=\"lazy\" src=\"https://i.imgur.com/PciFZjc.png\" class=\"img-fluid rounded-start\" alt=\"...\" data-is-external-image=\"true\">\n            <img loading=\"lazy\" src=\"https://i.imgur.com/SaRtJWv.jpg\" class=\"img-fluid rounded-start\" alt=\"...\" data-is-external-image=\"true\">\n        </div>\n    </div>\n    <div class=\"col-7 align-self-center\">\n        <img loading=\"lazy\" src=\"https://i.imgur.com/E00LbyV.jpg\" class=\"img-fluid rounded-start\" alt=\"...\" data-is-external-image=\"true\">\n    </div>\n  </div>\n</div></div>\n<div><div class=\"card mb-3\">\n  \n  <div class=\"row g-0\">\n    <div class=\"col-5 align-self-center\">\n        <div class=\"card-body\">\n            <h5 class=\"card-title\">Donate socket</h5>\n            <img loading=\"lazy\" src=\"https://i.imgur.com/nwETK02.jpg?1\" class=\"img-fluid rounded-start\" alt=\"...\" data-is-external-image=\"true\">\n            <img loading=\"lazy\" src=\"https://i.imgur.com/AnkyGhf.jpg\" class=\"img-fluid rounded-start\" alt=\"...\" data-is-external-image=\"true\">\n        </div>\n    </div>\n    <div class=\"col-7 align-self-center\">\n        <img loading=\"lazy\" src=\"https://i.imgur.com/tP3EFVf.jpg?1\" class=\"img-fluid rounded-start\" alt=\"...\" data-is-external-image=\"true\">\n    </div>\n  </div>\n</div></div>\n<div><div class=\"card mb-3\">\n  \n  <div class=\"row g-0\">\n    <div class=\"col-5 align-self-center\">\n        <div class=\"card-body\">\n            <h5 class=\"card-title\">Design Charger</h5>\n            <img loading=\"lazy\" src=\"https://i.imgur.com/A9RTTIq.jpg\" class=\"img-fluid rounded-start\" alt=\"...\" data-is-external-image=\"true\">\n            <img loading=\"lazy\" src=\"https://i.imgur.com/7BPKWka.jpg\" class=\"img-fluid rounded-start\" alt=\"...\" data-is-external-image=\"true\">\n        </div>\n    </div>\n    <div class=\"col-7 align-self-center\">\n        <img loading=\"lazy\" src=\"https://i.imgur.com/Au18O8T.jpg\" class=\"img-fluid rounded-start\" alt=\"...\" data-is-external-image=\"true\">\n    </div>\n  </div>\n</div></div>\n\n  <p>\n    \n  </p>\n<div><div class=\"row justify-content-center pt-5\">\n    <div class=\" col-8 hr_line\"></div>\n</div></div>\n\n  <div  class=\"gallery-wrapper\">\n    <div class=\"gallery\" data-columns=\"3\">\n      <figure class=\"gallery__item\">\n      <a href=\"https://ChunHuang.gitlab.io/gred/media/posts/3/gallery/IMG_5085.jpg\" data-size=\"4032x3024\">\n        <img loading=\"lazy\" src=\"https://ChunHuang.gitlab.io/gred/media/posts/3/gallery/IMG_5085-thumbnail.jpg\" height=\"576\" width=\"768\" alt=\"\" >\n      </a>\n      \n    </figure><figure class=\"gallery__item\">\n      <a href=\"https://ChunHuang.gitlab.io/gred/media/posts/3/gallery/IMG_5081.JPG\" data-size=\"4032x3024\">\n        <img loading=\"lazy\" src=\"https://ChunHuang.gitlab.io/gred/media/posts/3/gallery/IMG_5081-thumbnail.JPG\" height=\"576\" width=\"768\" alt=\"\" >\n      </a>\n      \n    </figure><figure class=\"gallery__item\">\n      <a href=\"https://ChunHuang.gitlab.io/gred/media/posts/3/gallery/IMG_5078.JPG\" data-size=\"4032x3024\">\n        <img loading=\"lazy\" src=\"https://ChunHuang.gitlab.io/gred/media/posts/3/gallery/IMG_5078-thumbnail.JPG\" height=\"576\" width=\"768\" alt=\"\" >\n      </a>\n      \n    </figure><figure class=\"gallery__item\">\n      <a href=\"https://ChunHuang.gitlab.io/gred/media/posts/3/gallery/IMG_4950.JPG\" data-size=\"4032x3024\">\n        <img loading=\"lazy\" src=\"https://ChunHuang.gitlab.io/gred/media/posts/3/gallery/IMG_4950-thumbnail.JPG\" height=\"576\" width=\"768\" alt=\"\" >\n      </a>\n      \n    </figure><figure class=\"gallery__item\">\n      <a href=\"https://ChunHuang.gitlab.io/gred/media/posts/3/gallery/IMG_4949.JPG\" data-size=\"4032x3024\">\n        <img loading=\"lazy\" src=\"https://ChunHuang.gitlab.io/gred/media/posts/3/gallery/IMG_4949-thumbnail.JPG\" height=\"576\" width=\"768\" alt=\"\" >\n      </a>\n      \n    </figure><figure class=\"gallery__item\">\n      <a href=\"https://ChunHuang.gitlab.io/gred/media/posts/3/gallery/IMG_4944.JPG\" data-size=\"4032x3024\">\n        <img loading=\"lazy\" src=\"https://ChunHuang.gitlab.io/gred/media/posts/3/gallery/IMG_4944-thumbnail.JPG\" height=\"576\" width=\"768\" alt=\"\" >\n      </a>\n      \n    </figure><figure class=\"gallery__item\">\n      <a href=\"https://ChunHuang.gitlab.io/gred/media/posts/3/gallery/IMG_1326.JPG\" data-size=\"4032x3024\">\n        <img loading=\"lazy\" src=\"https://ChunHuang.gitlab.io/gred/media/posts/3/gallery/IMG_1326-thumbnail.JPG\" height=\"576\" width=\"768\" alt=\"\" >\n      </a>\n      \n    </figure><figure class=\"gallery__item\">\n      <a href=\"https://ChunHuang.gitlab.io/gred/media/posts/3/gallery/IMG_1277.jpg\" data-size=\"4032x3024\">\n        <img loading=\"lazy\" src=\"https://ChunHuang.gitlab.io/gred/media/posts/3/gallery/IMG_1277-thumbnail.jpg\" height=\"576\" width=\"768\" alt=\"\" >\n      </a>\n      \n    </figure><figure class=\"gallery__item\">\n      <a href=\"https://ChunHuang.gitlab.io/gred/media/posts/3/gallery/IMG_1157-2.JPG\" data-size=\"4032x3024\">\n        <img loading=\"lazy\" src=\"https://ChunHuang.gitlab.io/gred/media/posts/3/gallery/IMG_1157-2-thumbnail.JPG\" height=\"576\" width=\"768\" alt=\"\" >\n      </a>\n      \n    </figure>\n    </div>\n  </div>\n\n  <p>\n    \n  </p>\n<div><div class=\"row justify-content-center pt-5\">\n    <div class=\" col-8 hr_line\"></div>\n</div></div>\n<div><div class=\"post__iframe\"><iframe loading=\"lazy\" width=\"560\" height=\"315\" src=\"https://www.youtube.com/embed/2jsOVsUwttY?si=5U03oSkV03yaBebQ\" title=\"YouTube video player\" frameborder=\"0\" allow=\"accelerometer; autoplay; clipboard-write; encrypted-media; gyroscope; picture-in-picture; web-share\" allowfullscreen></iframe></div>\n</div>",
            "image": "https://ChunHuang.gitlab.io/gred/media/posts/3/good0007.jpg",
            "author": {
                "name": "chunhuang"
            },
            "tags": [
                   "Artwork"
            ],
            "date_published": "2023-08-16T22:55:44+08:00",
            "date_modified": "2023-10-01T17:27:42+08:00"
        },
        {
            "id": "https://ChunHuang.gitlab.io/gred/float.html",
            "url": "https://ChunHuang.gitlab.io/gred/float.html",
            "title": "Float",
            "summary": "現實世界中的行為與物件正不斷轉換成為大量的「資訊」，當人們試圖尋 找能證明「資訊」存在的方法時，也開始嘗試以科學方法計算出「資訊重 量」。然而，成為資訊態的微小物質重量，終究與現實中人們所感受到物&hellip;",
            "content_html": "<div><div class=\"row justify-content-center \">\n    <div class=\" col-8 hr_line\"></div>\n</div></div>\n<div><div id=\"carouselExampleCaptions\" class=\"carousel slide\" data-bs-ride=\"carousel\">\n  <div class=\"carousel-indicators\">\n    <button type=\"button\" data-bs-target=\"#carouselExampleCaptions\" data-bs-slide-to=\"0\" class=\"active\" aria-current=\"true\" aria-label=\"Slide 1\"></button>\n    <button type=\"button\" data-bs-target=\"#carouselExampleCaptions\" data-bs-slide-to=\"1\" aria-label=\"Slide 2\"></button>\n  </div>\n  <div class=\"carousel-inner\">\n    <div class=\"carousel-item active\">\n      <img loading=\"lazy\" src=\"https://i.imgur.com/ShCAJ01.jpg?1\" class=\"d-block w-100\" alt=\"...\" data-is-external-image=\"true\">\n      <div class=\"carousel-caption d-block\">\n        <h5></h5>\n        <p></p>\n      </div>\n    </div>\n    <div class=\"carousel-item\">\n      <img loading=\"lazy\" src=\"https://i.imgur.com/I31gJHF.jpg\" class=\"d-block w-100\" alt=\"...\" data-is-external-image=\"true\">\n      <div class=\"carousel-caption d-block\">\n        <h5></h5>\n        <p></p>\n      </div>\n    </div>\n  </div>\n  <button class=\"carousel-control-prev\" type=\"button\" data-bs-target=\"#carouselExampleCaptions\" data-bs-slide=\"prev\">\n    <span class=\"carousel-control-prev-icon\" aria-hidden=\"true\"></span>\n    <span class=\"visually-hidden\">Previous</span>\n  </button>\n  <button class=\"carousel-control-next\" type=\"button\" data-bs-target=\"#carouselExampleCaptions\" data-bs-slide=\"next\">\n    <span class=\"carousel-control-next-icon\" aria-hidden=\"true\"></span>\n    <span class=\"visually-hidden\">Next</span>\n  </button>\n</div>\n<div class=\"m-3\"></div></div>\n\n  <p>\n    現實世界中的行為與物件正不斷轉換成為大量的「資訊」，當人們試圖尋 找能證明「資訊」存在的方法時，也開始嘗試以科學方法計算出「資訊重 量」。然而，成為資訊態的微小物質重量，終究與現實中人們所感受到物 體的有著極大差異。我們進一步去思考:數位技術在壓縮、消除人們印象 中的實體之際，世界存在的重量也正快速被濃縮、損耗、蒸散，而我們卻 毫無覺察。\n  </p>\n\n  <p>\n    In the real world, actions and objects are continuously being transformed into information. As people attempt to find ways to prove the existence of information, they also start to explore the calculation of its \"weight\" using scientific methods. However, the weight of tiny particles in their informational state differs greatly from the perceived weight of physical objects in reality. This prompts us to consider further:<br>as digital technology compresses and erases our impression of physicality, the weight of existence in the world is rapidly condensed, depleted, and dissipated, all<br>while we remain unaware.\n  </p>\n\n    <figure class=\"post__image post__image--center\">\n      <img loading=\"lazy\" src=\"https://ChunHuang.gitlab.io/gred/media/posts/1/Jie-Tu-2023-08-29-Xia-Wu-5.09.36.png\" height=\"1800\" width=\"1790\" alt=\"\"  sizes=\"(max-width: 1024px) 100vw, 1024px\" srcset=\"https://ChunHuang.gitlab.io/gred/media/posts/1/responsive/Jie-Tu-2023-08-29-Xia-Wu-5.09.36-xs.png 300w ,https://ChunHuang.gitlab.io/gred/media/posts/1/responsive/Jie-Tu-2023-08-29-Xia-Wu-5.09.36-sm.png 480w ,https://ChunHuang.gitlab.io/gred/media/posts/1/responsive/Jie-Tu-2023-08-29-Xia-Wu-5.09.36-md.png 768w ,https://ChunHuang.gitlab.io/gred/media/posts/1/responsive/Jie-Tu-2023-08-29-Xia-Wu-5.09.36-lg.png 1024w\">\n      \n    </figure>\n\n  <p>\n    「浮點數」試圖探究在數位技術中經過層層轉換被蒸散掉的重量究竟 為何?作品蒐集關於「I lost ......(我失去......)」的訊息，關注每一個物質 性的消逝。每一次單位裝置的運行，即代表著一條資訊訊息的產製、傳遞 與消散。在數位化過程中遺失重量後，僅存的微小重量藉由裝置將其蒸散 於場域之中，試圖找回人們對於「失去」的身體感受。\n  </p>\n\n  <p>\n    \"Float\" seeks to explore the weight that dissipates through successive transformations within digital technology. The artwork collects messages about \"I lost...\" and focuses on the materialistic disappearance of each instance. The operation of each unit device represents the generation, transmission, and dissipation of an information message. After losing weight in the process of digitization, the remaining minuscule weight is vaporized into the field through the devices, aiming to recover people's bodily perception of \"loss\".\n  </p>\n\n  <p>\n    \n  </p>\n<div><div class=\"row justify-content-center pt-5\">\n    <div class=\" col-8 hr_line\"></div>\n</div></div>\n\n  <div  class=\"gallery-wrapper\">\n    <div class=\"gallery\" data-columns=\"3\">\n      <figure class=\"gallery__item\">\n      <a href=\"https://ChunHuang.gitlab.io/gred/media/posts/1/gallery/04.jpg\" data-size=\"5322x3743\">\n        <img loading=\"lazy\" src=\"https://ChunHuang.gitlab.io/gred/media/posts/1/gallery/04-thumbnail.jpg\" height=\"540\" width=\"768\" alt=\"\" >\n      </a>\n      \n    </figure><figure class=\"gallery__item\">\n      <a href=\"https://ChunHuang.gitlab.io/gred/media/posts/1/gallery/001.jpg\" data-size=\"5456x3632\">\n        <img loading=\"lazy\" src=\"https://ChunHuang.gitlab.io/gred/media/posts/1/gallery/001-thumbnail.jpg\" height=\"511\" width=\"768\" alt=\"\" >\n      </a>\n      \n    </figure><figure class=\"gallery__item\">\n      <a href=\"https://ChunHuang.gitlab.io/gred/media/posts/1/gallery/002.jpg\" data-size=\"4909x3267\">\n        <img loading=\"lazy\" src=\"https://ChunHuang.gitlab.io/gred/media/posts/1/gallery/002-thumbnail.jpg\" height=\"511\" width=\"768\" alt=\"\" >\n      </a>\n      \n    </figure><figure class=\"gallery__item\">\n      <a href=\"https://ChunHuang.gitlab.io/gred/media/posts/1/gallery/001-2.jpg\" data-size=\"6000x4000\">\n        <img loading=\"lazy\" src=\"https://ChunHuang.gitlab.io/gred/media/posts/1/gallery/001-2-thumbnail.jpg\" height=\"512\" width=\"768\" alt=\"\" >\n      </a>\n      \n    </figure><figure class=\"gallery__item\">\n      <a href=\"https://ChunHuang.gitlab.io/gred/media/posts/1/gallery/002-2.jpg\" data-size=\"6000x4000\">\n        <img loading=\"lazy\" src=\"https://ChunHuang.gitlab.io/gred/media/posts/1/gallery/002-2-thumbnail.jpg\" height=\"512\" width=\"768\" alt=\"\" >\n      </a>\n      \n    </figure><figure class=\"gallery__item\">\n      <a href=\"https://ChunHuang.gitlab.io/gred/media/posts/1/gallery/003.jpg\" data-size=\"4000x6000\">\n        <img loading=\"lazy\" src=\"https://ChunHuang.gitlab.io/gred/media/posts/1/gallery/003-thumbnail.jpg\" height=\"1152\" width=\"768\" alt=\"\" >\n      </a>\n      \n    </figure><figure class=\"gallery__item\">\n      <a href=\"https://ChunHuang.gitlab.io/gred/media/posts/1/gallery/004.jpg\" data-size=\"6000x4000\">\n        <img loading=\"lazy\" src=\"https://ChunHuang.gitlab.io/gred/media/posts/1/gallery/004-thumbnail.jpg\" height=\"512\" width=\"768\" alt=\"\" >\n      </a>\n      \n    </figure><figure class=\"gallery__item\">\n      <a href=\"https://ChunHuang.gitlab.io/gred/media/posts/1/gallery/005.jpg\" data-size=\"6000x4000\">\n        <img loading=\"lazy\" src=\"https://ChunHuang.gitlab.io/gred/media/posts/1/gallery/005-thumbnail.jpg\" height=\"512\" width=\"768\" alt=\"\" >\n      </a>\n      \n    </figure>\n    </div>\n  </div>\n<div><div class=\"row justify-content-center pt-5\">\n    <div class=\" col-8 hr_line\"></div>\n</div></div>\n<div><div class=\"post__iframe\"><iframe loading=\"lazy\" width=\"560\" height=\"315\" src=\"https://www.youtube.com/embed/5RDqthYg9P0?si=lp6QZMpgVzK1WCLT\" title=\"YouTube video player\" frameborder=\"0\" allow=\"accelerometer; autoplay; clipboard-write; encrypted-media; gyroscope; picture-in-picture; web-share\" allowfullscreen></iframe></div></div>\n<div><div class=\"post__iframe\"><iframe loading=\"lazy\" width=\"100%\" height=\"50%\" src=\"https://www.youtube.com/embed/t30lR0cWlVo?si=uj9hlitmfZMYL58_\" title=\"YouTube video player\" frameborder=\"0\" allow=\"accelerometer; autoplay; clipboard-write; encrypted-media; gyroscope; picture-in-picture; web-share\" allowfullscreen></iframe></div></div>",
            "image": "https://ChunHuang.gitlab.io/gred/media/posts/1/001.jpg",
            "author": {
                "name": "chunhuang"
            },
            "tags": [
                   "Artwork"
            ],
            "date_published": "2023-08-13T23:30:26+08:00",
            "date_modified": "2023-11-30T16:54:58+08:00"
        }
    ]
}
